%YAML 1.1
%TAG !u! tag:unity3d.com,2011:
--- !u!1 &271369330587814107
GameObject:
  m_ObjectHideFlags: 0
  m_CorrespondingSourceObject: {fileID: 0}
  m_PrefabInstance: {fileID: 0}
  m_PrefabAsset: {fileID: 0}
  serializedVersion: 6
  m_Component:
  - component: {fileID: 5736956663599635491}
  - component: {fileID: 4218232661493248603}
  - component: {fileID: 675720954510731819}
  m_Layer: 31
  m_Name: Layer1
  m_TagString: Untagged
  m_Icon: {fileID: 0}
  m_NavMeshLayer: 0
  m_StaticEditorFlags: 0
  m_IsActive: 1
--- !u!4 &5736956663599635491
Transform:
  m_ObjectHideFlags: 0
  m_CorrespondingSourceObject: {fileID: 0}
  m_PrefabInstance: {fileID: 0}
  m_PrefabAsset: {fileID: 0}
  m_GameObject: {fileID: 271369330587814107}
  m_LocalRotation: {x: -0, y: -0, z: -0, w: 1}
  m_LocalPosition: {x: 0, y: 0, z: 0}
  m_LocalScale: {x: 1, y: 1, z: 1}
  m_Children: []
  m_Father: {fileID: 4292735937038074036}
  m_RootOrder: 0
  m_LocalEulerAnglesHint: {x: 0, y: 0, z: 0}
--- !u!1839735485 &4218232661493248603
Tilemap:
  m_ObjectHideFlags: 0
  m_CorrespondingSourceObject: {fileID: 0}
  m_PrefabInstance: {fileID: 0}
  m_PrefabAsset: {fileID: 0}
  m_GameObject: {fileID: 271369330587814107}
  m_Enabled: 1
  m_Tiles:
  - first: {x: -1, y: -7, z: 0}
    second:
      m_TileIndex: 42
      m_TileSpriteIndex: 42
      m_TileMatrixIndex: 0
      m_TileColorIndex: 0
      m_ObjectToInstantiate: {fileID: 0}
      m_TileFlags: 1
      m_ColliderType: 1
  - first: {x: 0, y: -7, z: 0}
    second:
      m_TileIndex: 43
      m_TileSpriteIndex: 43
      m_TileMatrixIndex: 0
      m_TileColorIndex: 0
      m_ObjectToInstantiate: {fileID: 0}
      m_TileFlags: 1
      m_ColliderType: 1
  - first: {x: 1, y: -7, z: 0}
    second:
      m_TileIndex: 44
      m_TileSpriteIndex: 44
      m_TileMatrixIndex: 0
      m_TileColorIndex: 0
      m_ObjectToInstantiate: {fileID: 0}
      m_TileFlags: 1
      m_ColliderType: 1
  - first: {x: 2, y: -7, z: 0}
    second:
      m_TileIndex: 45
      m_TileSpriteIndex: 45
      m_TileMatrixIndex: 0
      m_TileColorIndex: 0
      m_ObjectToInstantiate: {fileID: 0}
      m_TileFlags: 1
      m_ColliderType: 1
  - first: {x: 4, y: -7, z: 0}
    second:
      m_TileIndex: 46
      m_TileSpriteIndex: 46
      m_TileMatrixIndex: 0
      m_TileColorIndex: 0
      m_ObjectToInstantiate: {fileID: 0}
      m_TileFlags: 1
      m_ColliderType: 1
  - first: {x: 5, y: -7, z: 0}
    second:
      m_TileIndex: 47
      m_TileSpriteIndex: 47
      m_TileMatrixIndex: 0
      m_TileColorIndex: 0
      m_ObjectToInstantiate: {fileID: 0}
      m_TileFlags: 1
      m_ColliderType: 1
  - first: {x: 6, y: -7, z: 0}
    second:
      m_TileIndex: 48
      m_TileSpriteIndex: 48
      m_TileMatrixIndex: 0
      m_TileColorIndex: 0
      m_ObjectToInstantiate: {fileID: 0}
      m_TileFlags: 1
      m_ColliderType: 1
  - first: {x: -1, y: -6, z: 0}
    second:
      m_TileIndex: 37
      m_TileSpriteIndex: 37
      m_TileMatrixIndex: 0
      m_TileColorIndex: 0
      m_ObjectToInstantiate: {fileID: 0}
      m_TileFlags: 1
      m_ColliderType: 1
  - first: {x: 0, y: -6, z: 0}
    second:
      m_TileIndex: 38
      m_TileSpriteIndex: 38
      m_TileMatrixIndex: 0
      m_TileColorIndex: 0
      m_ObjectToInstantiate: {fileID: 0}
      m_TileFlags: 1
      m_ColliderType: 1
  - first: {x: 4, y: -6, z: 0}
    second:
      m_TileIndex: 39
      m_TileSpriteIndex: 39
      m_TileMatrixIndex: 0
      m_TileColorIndex: 0
      m_ObjectToInstantiate: {fileID: 0}
      m_TileFlags: 1
      m_ColliderType: 1
  - first: {x: 5, y: -6, z: 0}
    second:
      m_TileIndex: 40
      m_TileSpriteIndex: 40
      m_TileMatrixIndex: 0
      m_TileColorIndex: 0
      m_ObjectToInstantiate: {fileID: 0}
      m_TileFlags: 1
      m_ColliderType: 1
  - first: {x: 6, y: -6, z: 0}
    second:
      m_TileIndex: 41
      m_TileSpriteIndex: 41
      m_TileMatrixIndex: 0
      m_TileColorIndex: 0
      m_ObjectToInstantiate: {fileID: 0}
      m_TileFlags: 1
      m_ColliderType: 1
  - first: {x: -1, y: -5, z: 0}
    second:
      m_TileIndex: 30
      m_TileSpriteIndex: 30
      m_TileMatrixIndex: 0
      m_TileColorIndex: 0
      m_ObjectToInstantiate: {fileID: 0}
      m_TileFlags: 1
      m_ColliderType: 1
  - first: {x: 0, y: -5, z: 0}
    second:
      m_TileIndex: 31
      m_TileSpriteIndex: 31
      m_TileMatrixIndex: 0
      m_TileColorIndex: 0
      m_ObjectToInstantiate: {fileID: 0}
      m_TileFlags: 1
      m_ColliderType: 1
  - first: {x: 1, y: -5, z: 0}
    second:
      m_TileIndex: 32
      m_TileSpriteIndex: 32
      m_TileMatrixIndex: 0
      m_TileColorIndex: 0
      m_ObjectToInstantiate: {fileID: 0}
      m_TileFlags: 1
      m_ColliderType: 1
  - first: {x: 2, y: -5, z: 0}
    second:
      m_TileIndex: 33
      m_TileSpriteIndex: 33
      m_TileMatrixIndex: 0
      m_TileColorIndex: 0
      m_ObjectToInstantiate: {fileID: 0}
      m_TileFlags: 1
      m_ColliderType: 1
  - first: {x: 3, y: -5, z: 0}
    second:
      m_TileIndex: 34
      m_TileSpriteIndex: 34
      m_TileMatrixIndex: 0
      m_TileColorIndex: 0
      m_ObjectToInstantiate: {fileID: 0}
      m_TileFlags: 1
      m_ColliderType: 1
  - first: {x: 4, y: -5, z: 0}
    second:
      m_TileIndex: 35
      m_TileSpriteIndex: 35
      m_TileMatrixIndex: 0
      m_TileColorIndex: 0
      m_ObjectToInstantiate: {fileID: 0}
      m_TileFlags: 1
      m_ColliderType: 1
  - first: {x: 5, y: -5, z: 0}
    second:
      m_TileIndex: 36
      m_TileSpriteIndex: 36
      m_TileMatrixIndex: 0
      m_TileColorIndex: 0
      m_ObjectToInstantiate: {fileID: 0}
      m_TileFlags: 1
      m_ColliderType: 1
  - first: {x: 8, y: -5, z: 0}
    second:
      m_TileIndex: 49
      m_TileSpriteIndex: 49
      m_TileMatrixIndex: 0
      m_TileColorIndex: 0
      m_ObjectToInstantiate: {fileID: 0}
      m_TileFlags: 1
      m_ColliderType: 1
  - first: {x: 0, y: -4, z: 0}
    second:
      m_TileIndex: 24
      m_TileSpriteIndex: 24
      m_TileMatrixIndex: 0
      m_TileColorIndex: 0
      m_ObjectToInstantiate: {fileID: 0}
      m_TileFlags: 1
      m_ColliderType: 1
  - first: {x: 1, y: -4, z: 0}
    second:
      m_TileIndex: 25
      m_TileSpriteIndex: 25
      m_TileMatrixIndex: 0
      m_TileColorIndex: 0
      m_ObjectToInstantiate: {fileID: 0}
      m_TileFlags: 1
      m_ColliderType: 1
  - first: {x: 2, y: -4, z: 0}
    second:
      m_TileIndex: 26
      m_TileSpriteIndex: 26
      m_TileMatrixIndex: 0
      m_TileColorIndex: 0
      m_ObjectToInstantiate: {fileID: 0}
      m_TileFlags: 1
      m_ColliderType: 1
  - first: {x: 3, y: -4, z: 0}
    second:
      m_TileIndex: 27
      m_TileSpriteIndex: 27
      m_TileMatrixIndex: 0
      m_TileColorIndex: 0
      m_ObjectToInstantiate: {fileID: 0}
      m_TileFlags: 1
      m_ColliderType: 1
  - first: {x: 4, y: -4, z: 0}
    second:
      m_TileIndex: 28
      m_TileSpriteIndex: 28
      m_TileMatrixIndex: 0
      m_TileColorIndex: 0
      m_ObjectToInstantiate: {fileID: 0}
      m_TileFlags: 1
      m_ColliderType: 1
  - first: {x: 6, y: -4, z: 0}
    second:
      m_TileIndex: 29
      m_TileSpriteIndex: 29
      m_TileMatrixIndex: 0
      m_TileColorIndex: 0
      m_ObjectToInstantiate: {fileID: 0}
      m_TileFlags: 1
      m_ColliderType: 1
  - first: {x: -1, y: -3, z: 0}
    second:
      m_TileIndex: 17
      m_TileSpriteIndex: 17
      m_TileMatrixIndex: 0
      m_TileColorIndex: 0
      m_ObjectToInstantiate: {fileID: 0}
      m_TileFlags: 1
      m_ColliderType: 1
  - first: {x: 0, y: -3, z: 0}
    second:
      m_TileIndex: 18
      m_TileSpriteIndex: 18
      m_TileMatrixIndex: 0
      m_TileColorIndex: 0
      m_ObjectToInstantiate: {fileID: 0}
      m_TileFlags: 1
      m_ColliderType: 1
  - first: {x: 1, y: -3, z: 0}
    second:
      m_TileIndex: 19
      m_TileSpriteIndex: 19
      m_TileMatrixIndex: 0
      m_TileColorIndex: 0
      m_ObjectToInstantiate: {fileID: 0}
      m_TileFlags: 1
      m_ColliderType: 1
  - first: {x: 2, y: -3, z: 0}
    second:
      m_TileIndex: 20
      m_TileSpriteIndex: 20
      m_TileMatrixIndex: 0
      m_TileColorIndex: 0
      m_ObjectToInstantiate: {fileID: 0}
      m_TileFlags: 1
      m_ColliderType: 1
  - first: {x: 4, y: -3, z: 0}
    second:
      m_TileIndex: 21
      m_TileSpriteIndex: 21
      m_TileMatrixIndex: 0
      m_TileColorIndex: 0
      m_ObjectToInstantiate: {fileID: 0}
      m_TileFlags: 1
      m_ColliderType: 1
  - first: {x: 5, y: -3, z: 0}
    second:
      m_TileIndex: 22
      m_TileSpriteIndex: 22
      m_TileMatrixIndex: 0
      m_TileColorIndex: 0
      m_ObjectToInstantiate: {fileID: 0}
      m_TileFlags: 1
      m_ColliderType: 1
  - first: {x: 6, y: -3, z: 0}
    second:
      m_TileIndex: 23
      m_TileSpriteIndex: 23
      m_TileMatrixIndex: 0
      m_TileColorIndex: 0
      m_ObjectToInstantiate: {fileID: 0}
      m_TileFlags: 1
      m_ColliderType: 1
  - first: {x: -1, y: -2, z: 0}
    second:
      m_TileIndex: 12
      m_TileSpriteIndex: 12
      m_TileMatrixIndex: 0
      m_TileColorIndex: 0
      m_ObjectToInstantiate: {fileID: 0}
      m_TileFlags: 1
      m_ColliderType: 1
  - first: {x: 0, y: -2, z: 0}
    second:
      m_TileIndex: 13
      m_TileSpriteIndex: 13
      m_TileMatrixIndex: 0
      m_TileColorIndex: 0
      m_ObjectToInstantiate: {fileID: 0}
      m_TileFlags: 1
      m_ColliderType: 1
  - first: {x: 4, y: -2, z: 0}
    second:
      m_TileIndex: 14
      m_TileSpriteIndex: 14
      m_TileMatrixIndex: 0
      m_TileColorIndex: 0
      m_ObjectToInstantiate: {fileID: 0}
      m_TileFlags: 1
      m_ColliderType: 1
  - first: {x: 5, y: -2, z: 0}
    second:
      m_TileIndex: 15
      m_TileSpriteIndex: 15
      m_TileMatrixIndex: 0
      m_TileColorIndex: 0
      m_ObjectToInstantiate: {fileID: 0}
      m_TileFlags: 1
      m_ColliderType: 1
  - first: {x: 6, y: -2, z: 0}
    second:
      m_TileIndex: 16
      m_TileSpriteIndex: 16
      m_TileMatrixIndex: 0
      m_TileColorIndex: 0
      m_ObjectToInstantiate: {fileID: 0}
      m_TileFlags: 1
      m_ColliderType: 1
  - first: {x: -1, y: -1, z: 0}
    second:
      m_TileIndex: 5
      m_TileSpriteIndex: 5
      m_TileMatrixIndex: 0
      m_TileColorIndex: 0
      m_ObjectToInstantiate: {fileID: 0}
      m_TileFlags: 1
      m_ColliderType: 1
  - first: {x: 0, y: -1, z: 0}
    second:
      m_TileIndex: 6
      m_TileSpriteIndex: 6
      m_TileMatrixIndex: 0
      m_TileColorIndex: 0
      m_ObjectToInstantiate: {fileID: 0}
      m_TileFlags: 1
      m_ColliderType: 1
  - first: {x: 1, y: -1, z: 0}
    second:
      m_TileIndex: 7
      m_TileSpriteIndex: 7
      m_TileMatrixIndex: 0
      m_TileColorIndex: 0
      m_ObjectToInstantiate: {fileID: 0}
      m_TileFlags: 1
      m_ColliderType: 1
  - first: {x: 2, y: -1, z: 0}
    second:
      m_TileIndex: 8
      m_TileSpriteIndex: 8
      m_TileMatrixIndex: 0
      m_TileColorIndex: 0
      m_ObjectToInstantiate: {fileID: 0}
      m_TileFlags: 1
      m_ColliderType: 1
  - first: {x: 3, y: -1, z: 0}
    second:
      m_TileIndex: 9
      m_TileSpriteIndex: 9
      m_TileMatrixIndex: 0
      m_TileColorIndex: 0
      m_ObjectToInstantiate: {fileID: 0}
      m_TileFlags: 1
      m_ColliderType: 1
  - first: {x: 4, y: -1, z: 0}
    second:
      m_TileIndex: 10
      m_TileSpriteIndex: 10
      m_TileMatrixIndex: 0
      m_TileColorIndex: 0
      m_ObjectToInstantiate: {fileID: 0}
      m_TileFlags: 1
      m_ColliderType: 1
  - first: {x: 5, y: -1, z: 0}
    second:
      m_TileIndex: 11
      m_TileSpriteIndex: 11
      m_TileMatrixIndex: 0
      m_TileColorIndex: 0
      m_ObjectToInstantiate: {fileID: 0}
      m_TileFlags: 1
      m_ColliderType: 1
  - first: {x: 0, y: 0, z: 0}
    second:
      m_TileIndex: 0
      m_TileSpriteIndex: 0
      m_TileMatrixIndex: 0
      m_TileColorIndex: 0
      m_ObjectToInstantiate: {fileID: 0}
      m_TileFlags: 1
      m_ColliderType: 1
  - first: {x: 1, y: 0, z: 0}
    second:
      m_TileIndex: 1
      m_TileSpriteIndex: 1
      m_TileMatrixIndex: 0
      m_TileColorIndex: 0
      m_ObjectToInstantiate: {fileID: 0}
      m_TileFlags: 1
      m_ColliderType: 1
  - first: {x: 2, y: 0, z: 0}
    second:
      m_TileIndex: 2
      m_TileSpriteIndex: 2
      m_TileMatrixIndex: 0
      m_TileColorIndex: 0
      m_ObjectToInstantiate: {fileID: 0}
      m_TileFlags: 1
      m_ColliderType: 1
  - first: {x: 3, y: 0, z: 0}
    second:
      m_TileIndex: 3
      m_TileSpriteIndex: 3
      m_TileMatrixIndex: 0
      m_TileColorIndex: 0
      m_ObjectToInstantiate: {fileID: 0}
      m_TileFlags: 1
      m_ColliderType: 1
  - first: {x: 4, y: 0, z: 0}
    second:
      m_TileIndex: 4
      m_TileSpriteIndex: 4
      m_TileMatrixIndex: 0
      m_TileColorIndex: 0
      m_ObjectToInstantiate: {fileID: 0}
      m_TileFlags: 1
      m_ColliderType: 1
  m_AnimatedTiles: {}
  m_TileAssetArray:
  - m_RefCount: 1
    m_Data: {fileID: 11400000, guid: e2040f30382367a4cb7c113c2f6941f4, type: 2}
  - m_RefCount: 1
    m_Data: {fileID: 11400000, guid: 93d4743b1f2c77b4ba7652b5f60b5377, type: 2}
  - m_RefCount: 1
    m_Data: {fileID: 11400000, guid: a26ada6fd22befb47b0efca73f8dd326, type: 2}
  - m_RefCount: 1
    m_Data: {fileID: 11400000, guid: 4e7b1f38f942eb04dbbc01cf5e9b9c8b, type: 2}
  - m_RefCount: 1
    m_Data: {fileID: 11400000, guid: 28baf14e7d8d1064db88c5d7bb1bdd1c, type: 2}
  - m_RefCount: 1
    m_Data: {fileID: 11400000, guid: 3544620567aa05344b814c2111a6187a, type: 2}
  - m_RefCount: 1
    m_Data: {fileID: 11400000, guid: c8116ee5965bc664ca6149370c1ef2d0, type: 2}
  - m_RefCount: 1
    m_Data: {fileID: 11400000, guid: 1d2d8362eead32f43bb73a5ccb4bd784, type: 2}
  - m_RefCount: 1
    m_Data: {fileID: 11400000, guid: df0aa0f6a4e90b74c9edeb4f0a87521e, type: 2}
  - m_RefCount: 1
    m_Data: {fileID: 11400000, guid: a29608a4f3da18c4aa417a297ca196e1, type: 2}
  - m_RefCount: 1
    m_Data: {fileID: 11400000, guid: 51a72b571c88ca944b329510f65b185b, type: 2}
  - m_RefCount: 1
    m_Data: {fileID: 11400000, guid: 9dcb2fe310afd7844846b26a90f8add1, type: 2}
  - m_RefCount: 1
    m_Data: {fileID: 11400000, guid: e0a49879e5815c14780acdefe0ecb718, type: 2}
  - m_RefCount: 1
    m_Data: {fileID: 11400000, guid: 4082e61fda6ed324bb22c0faefbdbbdf, type: 2}
  - m_RefCount: 1
    m_Data: {fileID: 11400000, guid: cac53ff22de184d4a83f3c685acd1e74, type: 2}
  - m_RefCount: 1
    m_Data: {fileID: 11400000, guid: 0a56c6cb15f97cc40b6706d638418ba8, type: 2}
  - m_RefCount: 1
    m_Data: {fileID: 11400000, guid: 0ed9ecfa6e270744da3cab21ad8870ac, type: 2}
  - m_RefCount: 1
    m_Data: {fileID: 11400000, guid: b8ad7b8a35e011a48944ae781d79fed6, type: 2}
  - m_RefCount: 1
    m_Data: {fileID: 11400000, guid: 9abaf43970f1d5f4b80d8096742d4a9e, type: 2}
  - m_RefCount: 1
    m_Data: {fileID: 11400000, guid: cd3adf1ca034f1a4f9d14fbd30c7eb81, type: 2}
  - m_RefCount: 1
    m_Data: {fileID: 11400000, guid: b74633a9b8c1a4d47a51e6eca5df209c, type: 2}
  - m_RefCount: 1
    m_Data: {fileID: 11400000, guid: 147e852c05d8d3645adf415ed6350361, type: 2}
  - m_RefCount: 1
    m_Data: {fileID: 11400000, guid: cf37b7d817e9aaa408c2d8ae53d270be, type: 2}
  - m_RefCount: 1
    m_Data: {fileID: 11400000, guid: 94477a94fc59a6d459c1c5c94ea4169a, type: 2}
  - m_RefCount: 1
    m_Data: {fileID: 11400000, guid: 9625850a7ba337043ac7a2d6580ae944, type: 2}
  - m_RefCount: 1
    m_Data: {fileID: 11400000, guid: 6dda7ae79c3992548affd57f4397f003, type: 2}
  - m_RefCount: 1
    m_Data: {fileID: 11400000, guid: 0e1be32905837df45b818138c3c0e163, type: 2}
  - m_RefCount: 1
    m_Data: {fileID: 11400000, guid: a0a0e2269c9c0cc4db0ee59818d85e48, type: 2}
  - m_RefCount: 1
    m_Data: {fileID: 11400000, guid: 3d7a7eab0a92f8040bbf69d253fa35a1, type: 2}
  - m_RefCount: 1
    m_Data: {fileID: 11400000, guid: b6fd5d12523843044971e24450dbc956, type: 2}
  - m_RefCount: 1
    m_Data: {fileID: 11400000, guid: 3f11f1f946836514db602ea296a8b92e, type: 2}
  - m_RefCount: 1
    m_Data: {fileID: 11400000, guid: ea1e2e39b85d1804ebb5d41c01d66678, type: 2}
  - m_RefCount: 1
    m_Data: {fileID: 11400000, guid: b07d93409db824048acd70bb23836b0c, type: 2}
  - m_RefCount: 1
    m_Data: {fileID: 11400000, guid: c6c90baed7f55a34396e2604889896e2, type: 2}
  - m_RefCount: 1
    m_Data: {fileID: 11400000, guid: 0714f91ef90252847ac45c0a0d0e8296, type: 2}
  - m_RefCount: 1
    m_Data: {fileID: 11400000, guid: b0daee6b2b6bb4d47a43411c371bae10, type: 2}
  - m_RefCount: 1
    m_Data: {fileID: 11400000, guid: cb07dfc9191cf534e98901405f52b438, type: 2}
  - m_RefCount: 1
    m_Data: {fileID: 11400000, guid: c11107ac8a85ae74288ccb87c8a3fc1d, type: 2}
  - m_RefCount: 1
    m_Data: {fileID: 11400000, guid: 2a4390ae8eb93734994d44e01b998584, type: 2}
  - m_RefCount: 1
    m_Data: {fileID: 11400000, guid: 7502704dac2cb09468921ee436e9f5d7, type: 2}
  - m_RefCount: 1
    m_Data: {fileID: 11400000, guid: 1d8d425865aa97a49b2722d99f76b33c, type: 2}
  - m_RefCount: 1
    m_Data: {fileID: 11400000, guid: 55ae03d641c396a46bd1a51a10bd345e, type: 2}
  - m_RefCount: 1
    m_Data: {fileID: 11400000, guid: 4ac47ed69f12f2440af0afdda993c44a, type: 2}
  - m_RefCount: 1
    m_Data: {fileID: 11400000, guid: 88f70678dd6eb6a40a5a4ec871368ab1, type: 2}
  - m_RefCount: 1
    m_Data: {fileID: 11400000, guid: 697f32935d45f6b489fd52d5871693a6, type: 2}
  - m_RefCount: 1
    m_Data: {fileID: 11400000, guid: 44c594660f4d0f648ac6ea6ba5eda4b2, type: 2}
  - m_RefCount: 1
    m_Data: {fileID: 11400000, guid: 912c99ef0dffbc14b85da7a05079e0d3, type: 2}
  - m_RefCount: 1
    m_Data: {fileID: 11400000, guid: dd949d01bc0759d4d86e336b34ba2619, type: 2}
  - m_RefCount: 1
    m_Data: {fileID: 11400000, guid: 098678558e9dc5841b8b583895c36ffe, type: 2}
  - m_RefCount: 1
    m_Data: {fileID: 11400000, guid: 2a6e90dc6ffd8e142a83f55409dba89b, type: 2}
  m_TileSpriteArray:
  - m_RefCount: 1
    m_Data: {fileID: 21300000, guid: a9c648a3605a9e3419eb07d52f8cb10d, type: 3}
  - m_RefCount: 1
    m_Data: {fileID: 21300002, guid: a9c648a3605a9e3419eb07d52f8cb10d, type: 3}
  - m_RefCount: 1
    m_Data: {fileID: 21300004, guid: a9c648a3605a9e3419eb07d52f8cb10d, type: 3}
  - m_RefCount: 1
    m_Data: {fileID: 21300006, guid: a9c648a3605a9e3419eb07d52f8cb10d, type: 3}
  - m_RefCount: 1
    m_Data: {fileID: 21300008, guid: a9c648a3605a9e3419eb07d52f8cb10d, type: 3}
  - m_RefCount: 1
    m_Data: {fileID: 21300010, guid: a9c648a3605a9e3419eb07d52f8cb10d, type: 3}
  - m_RefCount: 1
    m_Data: {fileID: 21300012, guid: a9c648a3605a9e3419eb07d52f8cb10d, type: 3}
  - m_RefCount: 1
    m_Data: {fileID: 21300014, guid: a9c648a3605a9e3419eb07d52f8cb10d, type: 3}
  - m_RefCount: 1
    m_Data: {fileID: 21300016, guid: a9c648a3605a9e3419eb07d52f8cb10d, type: 3}
  - m_RefCount: 1
    m_Data: {fileID: 21300018, guid: a9c648a3605a9e3419eb07d52f8cb10d, type: 3}
  - m_RefCount: 1
    m_Data: {fileID: 21300020, guid: a9c648a3605a9e3419eb07d52f8cb10d, type: 3}
  - m_RefCount: 1
    m_Data: {fileID: 21300022, guid: a9c648a3605a9e3419eb07d52f8cb10d, type: 3}
  - m_RefCount: 1
    m_Data: {fileID: 21300024, guid: a9c648a3605a9e3419eb07d52f8cb10d, type: 3}
  - m_RefCount: 1
    m_Data: {fileID: 21300026, guid: a9c648a3605a9e3419eb07d52f8cb10d, type: 3}
  - m_RefCount: 1
    m_Data: {fileID: 21300028, guid: a9c648a3605a9e3419eb07d52f8cb10d, type: 3}
  - m_RefCount: 1
    m_Data: {fileID: 21300030, guid: a9c648a3605a9e3419eb07d52f8cb10d, type: 3}
  - m_RefCount: 1
    m_Data: {fileID: 21300032, guid: a9c648a3605a9e3419eb07d52f8cb10d, type: 3}
  - m_RefCount: 1
    m_Data: {fileID: 21300034, guid: a9c648a3605a9e3419eb07d52f8cb10d, type: 3}
  - m_RefCount: 1
    m_Data: {fileID: 21300036, guid: a9c648a3605a9e3419eb07d52f8cb10d, type: 3}
  - m_RefCount: 1
    m_Data: {fileID: 21300038, guid: a9c648a3605a9e3419eb07d52f8cb10d, type: 3}
  - m_RefCount: 1
    m_Data: {fileID: 21300040, guid: a9c648a3605a9e3419eb07d52f8cb10d, type: 3}
  - m_RefCount: 1
    m_Data: {fileID: 21300042, guid: a9c648a3605a9e3419eb07d52f8cb10d, type: 3}
  - m_RefCount: 1
    m_Data: {fileID: 21300044, guid: a9c648a3605a9e3419eb07d52f8cb10d, type: 3}
  - m_RefCount: 1
    m_Data: {fileID: 21300046, guid: a9c648a3605a9e3419eb07d52f8cb10d, type: 3}
  - m_RefCount: 1
    m_Data: {fileID: 21300048, guid: a9c648a3605a9e3419eb07d52f8cb10d, type: 3}
  - m_RefCount: 1
    m_Data: {fileID: 21300050, guid: a9c648a3605a9e3419eb07d52f8cb10d, type: 3}
  - m_RefCount: 1
    m_Data: {fileID: 21300052, guid: a9c648a3605a9e3419eb07d52f8cb10d, type: 3}
  - m_RefCount: 1
    m_Data: {fileID: 21300054, guid: a9c648a3605a9e3419eb07d52f8cb10d, type: 3}
  - m_RefCount: 1
    m_Data: {fileID: 21300056, guid: a9c648a3605a9e3419eb07d52f8cb10d, type: 3}
  - m_RefCount: 1
    m_Data: {fileID: 21300058, guid: a9c648a3605a9e3419eb07d52f8cb10d, type: 3}
  - m_RefCount: 1
    m_Data: {fileID: 21300060, guid: a9c648a3605a9e3419eb07d52f8cb10d, type: 3}
  - m_RefCount: 1
    m_Data: {fileID: 21300062, guid: a9c648a3605a9e3419eb07d52f8cb10d, type: 3}
  - m_RefCount: 1
    m_Data: {fileID: 21300064, guid: a9c648a3605a9e3419eb07d52f8cb10d, type: 3}
  - m_RefCount: 1
    m_Data: {fileID: 21300066, guid: a9c648a3605a9e3419eb07d52f8cb10d, type: 3}
  - m_RefCount: 1
    m_Data: {fileID: 21300068, guid: a9c648a3605a9e3419eb07d52f8cb10d, type: 3}
  - m_RefCount: 1
    m_Data: {fileID: 21300070, guid: a9c648a3605a9e3419eb07d52f8cb10d, type: 3}
  - m_RefCount: 1
    m_Data: {fileID: 21300072, guid: a9c648a3605a9e3419eb07d52f8cb10d, type: 3}
  - m_RefCount: 1
    m_Data: {fileID: 21300074, guid: a9c648a3605a9e3419eb07d52f8cb10d, type: 3}
  - m_RefCount: 1
    m_Data: {fileID: 21300076, guid: a9c648a3605a9e3419eb07d52f8cb10d, type: 3}
  - m_RefCount: 1
    m_Data: {fileID: 21300078, guid: a9c648a3605a9e3419eb07d52f8cb10d, type: 3}
  - m_RefCount: 1
    m_Data: {fileID: 21300080, guid: a9c648a3605a9e3419eb07d52f8cb10d, type: 3}
  - m_RefCount: 1
    m_Data: {fileID: 21300082, guid: a9c648a3605a9e3419eb07d52f8cb10d, type: 3}
  - m_RefCount: 1
    m_Data: {fileID: 21300084, guid: a9c648a3605a9e3419eb07d52f8cb10d, type: 3}
  - m_RefCount: 1
    m_Data: {fileID: 21300086, guid: a9c648a3605a9e3419eb07d52f8cb10d, type: 3}
  - m_RefCount: 1
    m_Data: {fileID: 21300088, guid: a9c648a3605a9e3419eb07d52f8cb10d, type: 3}
  - m_RefCount: 1
    m_Data: {fileID: 21300090, guid: a9c648a3605a9e3419eb07d52f8cb10d, type: 3}
  - m_RefCount: 1
    m_Data: {fileID: 21300092, guid: a9c648a3605a9e3419eb07d52f8cb10d, type: 3}
  - m_RefCount: 1
    m_Data: {fileID: 21300094, guid: a9c648a3605a9e3419eb07d52f8cb10d, type: 3}
  - m_RefCount: 1
    m_Data: {fileID: 21300096, guid: a9c648a3605a9e3419eb07d52f8cb10d, type: 3}
  - m_RefCount: 1
    m_Data: {fileID: 21300010, guid: 166db34841ed4454985726b5f89324cc, type: 3}
  m_TileMatrixArray:
  - m_RefCount: 50
    m_Data:
      e00: 1
      e01: 0
      e02: 0
      e03: 0
      e10: 0
      e11: 1
      e12: 0
      e13: 0
      e20: 0
      e21: 0
      e22: 1
      e23: 0
      e30: 0
      e31: 0
      e32: 0
      e33: 1
  m_TileColorArray:
  - m_RefCount: 50
    m_Data: {r: 1, g: 1, b: 1, a: 1}
  m_AnimationFrameRate: 1
  m_Color: {r: 1, g: 1, b: 1, a: 1}
  m_Origin: {x: -1, y: -7, z: 0}
  m_Size: {x: 10, y: 8, z: 1}
  m_TileAnchor: {x: 0.5, y: 0.5, z: 0}
  m_TileOrientation: 0
  m_TileOrientationMatrix:
    e00: 1
    e01: 0
    e02: 0
    e03: 0
    e10: 0
    e11: 1
    e12: 0
    e13: 0
    e20: 0
    e21: 0
    e22: 1
    e23: 0
    e30: 0
    e31: 0
    e32: 0
    e33: 1
--- !u!483693784 &675720954510731819
TilemapRenderer:
  m_ObjectHideFlags: 0
  m_CorrespondingSourceObject: {fileID: 0}
  m_PrefabInstance: {fileID: 0}
  m_PrefabAsset: {fileID: 0}
  m_GameObject: {fileID: 271369330587814107}
  m_Enabled: 0
  m_CastShadows: 0
  m_ReceiveShadows: 0
  m_DynamicOccludee: 0
  m_MotionVectors: 1
  m_LightProbeUsage: 0
  m_ReflectionProbeUsage: 0
  m_RenderingLayerMask: 1
  m_RendererPriority: 0
  m_Materials:
  - {fileID: 10754, guid: 0000000000000000f000000000000000, type: 0}
  m_StaticBatchInfo:
    firstSubMesh: 0
    subMeshCount: 0
  m_StaticBatchRoot: {fileID: 0}
  m_ProbeAnchor: {fileID: 0}
  m_LightProbeVolumeOverride: {fileID: 0}
  m_ScaleInLightmap: 1
  m_PreserveUVs: 0
  m_IgnoreNormalsForChartDetection: 0
  m_ImportantGI: 0
  m_StitchLightmapSeams: 0
  m_SelectedEditorRenderState: 0
  m_MinimumChartSize: 4
  m_AutoUVMaxDistance: 0.5
  m_AutoUVMaxAngle: 89
  m_LightmapParameters: {fileID: 0}
  m_SortingLayerID: 0
  m_SortingLayer: 0
  m_SortingOrder: 0
  m_ChunkSize: {x: 32, y: 32, z: 32}
  m_ChunkCullingBounds: {x: 0, y: 0, z: 0}
  m_MaxChunkCount: 16
  m_MaxFrameAge: 16
  m_SortOrder: 0
  m_Mode: 0
  m_DetectChunkCullingBounds: 0
  m_MaskInteraction: 0
--- !u!1 &698793230954237310
GameObject:
  m_ObjectHideFlags: 0
  m_CorrespondingSourceObject: {fileID: 0}
  m_PrefabInstance: {fileID: 0}
  m_PrefabAsset: {fileID: 0}
  serializedVersion: 6
  m_Component:
  - component: {fileID: 4292735937038074036}
  - component: {fileID: 6701192741199482839}
  m_Layer: 31
  m_Name: Ground_Items
  m_TagString: Untagged
  m_Icon: {fileID: 0}
  m_NavMeshLayer: 0
  m_StaticEditorFlags: 0
  m_IsActive: 1
--- !u!4 &4292735937038074036
Transform:
  m_ObjectHideFlags: 0
  m_CorrespondingSourceObject: {fileID: 0}
  m_PrefabInstance: {fileID: 0}
  m_PrefabAsset: {fileID: 0}
  m_GameObject: {fileID: 698793230954237310}
  m_LocalRotation: {x: 0, y: 0, z: 0, w: 1}
  m_LocalPosition: {x: 0, y: 0, z: 0}
  m_LocalScale: {x: 1, y: 1, z: 1}
  m_Children:
  - {fileID: 5736956663599635491}
  m_Father: {fileID: 0}
  m_RootOrder: 0
  m_LocalEulerAnglesHint: {x: 0, y: 0, z: 0}
--- !u!156049354 &6701192741199482839
Grid:
  m_ObjectHideFlags: 0
  m_CorrespondingSourceObject: {fileID: 0}
  m_PrefabInstance: {fileID: 0}
  m_PrefabAsset: {fileID: 0}
  m_GameObject: {fileID: 698793230954237310}
  m_Enabled: 1
  m_CellSize: {x: 1, y: 1, z: 0}
  m_CellGap: {x: 0, y: 0, z: 0}
  m_CellLayout: 0
  m_CellSwizzle: 0
--- !u!114 &114179183904426900
MonoBehaviour:
  m_ObjectHideFlags: 0
  m_CorrespondingSourceObject: {fileID: 0}
  m_PrefabInstance: {fileID: 0}
  m_PrefabAsset: {fileID: 0}
  m_GameObject: {fileID: 0}
  m_Enabled: 1
  m_EditorHideFlags: 0
  m_Script: {fileID: 12395, guid: 0000000000000000e000000000000000, type: 0}
  m_Name: Palette Settings
  m_EditorClassIdentifier: 
  cellSizing: 0
